Mean accuracy for 5 iterations is: 92.16418121279386
Mean prediction time for 5 iterations is: 0.00016086271425659582
Accuracy score is: 94.11764705882352
Accuracy score is: 94.33962264150944
Accuracy score is: 86.0
Accuracy score is: 88.63636363636364
Accuracy score is: 97.72727272727273
Total prediction time: 0.0408363342285221
Total prediction time: 0.0466535091400024
Total prediction time: 0.06026840209961
Total prediction time: 0.0392937660217256
Total prediction time: 0.040459871292112405
Mean prediction time per iteration: 0.00014480969584582305
Mean prediction time per iteration: 0.00015922699365188532
Mean prediction time per iteration: 0.00021371773794187944
Mean prediction time per iteration: 0.00014607347963466766
Mean prediction time per iteration: 0.00014048566420872362
Prediction time per iteration: 0.000623941421509
Prediction time per iteration: 0.0001540184021
Prediction time per iteration: 0.000264883041382
Prediction time per iteration: 0.000114917755127
Prediction time per iteration: 0.000269174575806
Prediction time per iteration: 0.000108003616333
Prediction time per iteration: 0.000103950500488
Prediction time per iteration: 9.98973846436e-05
Prediction time per iteration: 0.000100135803223
Prediction time per iteration: 0.000247955322266
Prediction time per iteration: 0.000107049942017
Prediction time per iteration: 0.000105142593384
Prediction time per iteration: 0.000101089477539
Prediction time per iteration: 9.89437103271e-05
Prediction time per iteration: 0.000250816345215
Prediction time per iteration: 0.000104904174805
Prediction time per iteration: 9.79900360107e-05
Prediction time per iteration: 0.000142097473145
Prediction time per iteration: 0.000113964080811
Prediction time per iteration: 0.000101089477539
Prediction time per iteration: 0.000216007232666
Prediction time per iteration: 0.000108957290649
Prediction time per iteration: 0.0001060962677
Prediction time per iteration: 0.0001060962677
Prediction time per iteration: 0.000103950500488
Prediction time per iteration: 0.000169038772583
Prediction time per iteration: 0.000109910964966
Prediction time per iteration: 0.000165939331055
Prediction time per iteration: 0.000153064727783
Prediction time per iteration: 0.000123977661133
Prediction time per iteration: 0.000102996826172
Prediction time per iteration: 9.98973846436e-05
Prediction time per iteration: 0.000202894210815
Prediction time per iteration: 0.000109195709229
Prediction time per iteration: 0.00011682510376
Prediction time per iteration: 0.000101089477539
Prediction time per iteration: 0.000204801559448
Prediction time per iteration: 0.00019097328186
Prediction time per iteration: 0.000124931335449
Prediction time per iteration: 0.000204086303711
Prediction time per iteration: 0.000144958496094
Prediction time per iteration: 0.000113964080811
Prediction time per iteration: 0.000108003616333
Prediction time per iteration: 0.000102996826172
Prediction time per iteration: 0.000200986862183
Prediction time per iteration: 0.000117063522339
Prediction time per iteration: 0.000109910964966
Prediction time per iteration: 0.000109195709229
Prediction time per iteration: 0.000117778778076
Prediction time per iteration: 0.000101804733276
Prediction time per iteration: 0.000241994857788
Prediction time per iteration: 0.000108003616333
Prediction time per iteration: 0.000102996826172
Prediction time per iteration: 0.000157117843628
Prediction time per iteration: 0.000128030776978
Prediction time per iteration: 0.000107049942017
Prediction time per iteration: 0.000286102294922
Prediction time per iteration: 0.000205993652344
Prediction time per iteration: 0.000118970870972
Prediction time per iteration: 0.000123977661133
Prediction time per iteration: 0.000103950500488
Prediction time per iteration: 0.000101089477539
Prediction time per iteration: 9.60826873779e-05
Prediction time per iteration: 0.000263929367065
Prediction time per iteration: 0.000111818313599
Prediction time per iteration: 0.000255823135376
Prediction time per iteration: 0.000171899795532
Prediction time per iteration: 0.000167846679688
Prediction time per iteration: 0.000164985656738
Prediction time per iteration: 0.000272989273071
Prediction time per iteration: 0.000108957290649
Prediction time per iteration: 0.000105142593384
Prediction time per iteration: 0.000102996826172
Prediction time per iteration: 0.000108003616333
Prediction time per iteration: 0.000116109848022
Prediction time per iteration: 0.000249147415161
Prediction time per iteration: 0.0001060962677
Prediction time per iteration: 0.000105142593384
Prediction time per iteration: 0.000308036804199
Prediction time per iteration: 0.000133037567139
Prediction time per iteration: 0.000115156173706
Prediction time per iteration: 0.000122785568237
Prediction time per iteration: 0.000259160995483
Prediction time per iteration: 0.000115871429443
Prediction time per iteration: 0.000112056732178
Prediction time per iteration: 0.000109910964966
Prediction time per iteration: 0.000108957290649
Prediction time per iteration: 0.000115156173706
Prediction time per iteration: 0.000113010406494
Prediction time per iteration: 0.000112056732178
Prediction time per iteration: 0.000264167785645
Prediction time per iteration: 0.000115871429443
Prediction time per iteration: 0.000110864639282
Prediction time per iteration: 0.000111103057861
Prediction time per iteration: 0.000118017196655
Prediction time per iteration: 0.000270128250122
Prediction time per iteration: 0.000116109848022
Prediction time per iteration: 0.000112056732178
Prediction time per iteration: 0.000113010406494
Prediction time per iteration: 0.000118970870972
Prediction time per iteration: 0.00031304359436
Prediction time per iteration: 0.000133037567139
Prediction time per iteration: 0.000108957290649
Prediction time per iteration: 0.000109195709229
Prediction time per iteration: 0.000108957290649
Prediction time per iteration: 0.000267028808594
Prediction time per iteration: 0.000115156173706
Prediction time per iteration: 0.000107049942017
Prediction time per iteration: 0.000108003616333
Prediction time per iteration: 0.00026798248291
Prediction time per iteration: 0.000113010406494
Prediction time per iteration: 0.000107049942017
Prediction time per iteration: 0.000108957290649
Prediction time per iteration: 0.000256061553955
Prediction time per iteration: 0.000113010406494
Prediction time per iteration: 0.000108957290649
Prediction time per iteration: 0.000107049942017
Prediction time per iteration: 0.000272989273071
Prediction time per iteration: 0.000113010406494
Prediction time per iteration: 0.000109910964966
Prediction time per iteration: 0.000117063522339
Prediction time per iteration: 0.000104904174805
Prediction time per iteration: 0.000117063522339
Prediction time per iteration: 0.000266075134277
Prediction time per iteration: 0.000149965286255
Prediction time per iteration: 0.000114917755127
Prediction time per iteration: 0.000123023986816
Prediction time per iteration: 0.000108957290649
Prediction time per iteration: 0.000103950500488
Prediction time per iteration: 0.000267028808594
Prediction time per iteration: 0.0001220703125
Prediction time per iteration: 0.000110864639282
Prediction time per iteration: 0.000109910964966
Prediction time per iteration: 0.00025200843811
Prediction time per iteration: 0.000108003616333
Prediction time per iteration: 0.000105142593384
Prediction time per iteration: 0.000101804733276
Prediction time per iteration: 0.000271081924438
Prediction time per iteration: 0.000108003616333
Prediction time per iteration: 0.000102996826172
Prediction time per iteration: 0.000101089477539
Prediction time per iteration: 0.00010085105896
Prediction time per iteration: 0.000109910964966
Prediction time per iteration: 0.000195026397705
Prediction time per iteration: 0.000105142593384
Prediction time per iteration: 0.000100135803223
Prediction time per iteration: 9.89437103271e-05
Prediction time per iteration: 9.58442687988e-05
Prediction time per iteration: 9.58442687988e-05
Prediction time per iteration: 0.000249147415161
Prediction time per iteration: 0.000111103057861
Prediction time per iteration: 0.000113010406494
Prediction time per iteration: 0.000113964080811
Prediction time per iteration: 0.00026798248291
Prediction time per iteration: 0.000259876251221
Prediction time per iteration: 0.000109910964966
Prediction time per iteration: 0.000100135803223
Prediction time per iteration: 0.000100135803223
Prediction time per iteration: 0.000289916992188
Prediction time per iteration: 0.000114917755127
Prediction time per iteration: 0.000108003616333
Prediction time per iteration: 0.000102996826172
Prediction time per iteration: 0.000102996826172
Prediction time per iteration: 0.000102043151855
Prediction time per iteration: 0.000306844711304
Prediction time per iteration: 0.000115156173706
Prediction time per iteration: 0.000107049942017
Prediction time per iteration: 0.000107049942017
Prediction time per iteration: 0.000276803970337
Prediction time per iteration: 0.000118017196655
Prediction time per iteration: 0.000107049942017
Prediction time per iteration: 0.0001060962677
Prediction time per iteration: 0.000105857849121
Prediction time per iteration: 0.000112056732178
Prediction time per iteration: 0.000279188156128
Prediction time per iteration: 0.000108003616333
Prediction time per iteration: 0.000104904174805
Prediction time per iteration: 0.00010085105896
Prediction time per iteration: 9.79900360107e-05
Prediction time per iteration: 9.67979431152e-05
Prediction time per iteration: 9.60826873779e-05
Prediction time per iteration: 9.70363616943e-05
Prediction time per iteration: 0.000284910202026
Prediction time per iteration: 0.000105142593384
Prediction time per iteration: 9.89437103271e-05
Prediction time per iteration: 0.000100135803223
Prediction time per iteration: 0.000131130218506
Prediction time per iteration: 0.000290155410767
Prediction time per iteration: 0.000113010406494
Prediction time per iteration: 0.000103950500488
Prediction time per iteration: 0.000101089477539
Prediction time per iteration: 0.000108003616333
Prediction time per iteration: 0.000236988067627
Prediction time per iteration: 0.000107049942017
Prediction time per iteration: 0.000104188919067
Prediction time per iteration: 0.00010085105896
Prediction time per iteration: 9.98973846436e-05
Prediction time per iteration: 0.000246047973633
Prediction time per iteration: 0.000110864639282
Prediction time per iteration: 0.000104904174805
Prediction time per iteration: 0.000102043151855
Prediction time per iteration: 9.79900360107e-05
Prediction time per iteration: 9.70363616943e-05
Prediction time per iteration: 0.000243902206421
Prediction time per iteration: 0.000113010406494
Prediction time per iteration: 0.000105857849121
Prediction time per iteration: 0.000108003616333
Prediction time per iteration: 0.000229120254517
Prediction time per iteration: 0.000113010406494
Prediction time per iteration: 0.000108003616333
Prediction time per iteration: 0.000116109848022
Prediction time per iteration: 0.000101804733276
Prediction time per iteration: 0.000107049942017
Prediction time per iteration: 0.000293970108032
Prediction time per iteration: 0.000123977661133
Prediction time per iteration: 0.000111103057861
Prediction time per iteration: 0.000268936157227
Prediction time per iteration: 0.0001220703125
Prediction time per iteration: 0.000109910964966
Prediction time per iteration: 0.0001060962677
Prediction time per iteration: 0.000295877456665
Prediction time per iteration: 0.000123023986816
Prediction time per iteration: 0.000107049942017
Prediction time per iteration: 0.000107049942017
Prediction time per iteration: 0.000101089477539
Prediction time per iteration: 0.000296115875244
Prediction time per iteration: 0.000113964080811
Prediction time per iteration: 0.000108003616333
Prediction time per iteration: 0.000107049942017
Prediction time per iteration: 0.000265121459961
Prediction time per iteration: 0.0001220703125
Prediction time per iteration: 0.000100135803223
Prediction time per iteration: 9.89437103271e-05
Prediction time per iteration: 9.67979431152e-05
Prediction time per iteration: 0.000277042388916
Prediction time per iteration: 0.000121116638184
Prediction time per iteration: 0.0001060962677
Prediction time per iteration: 0.000116109848022
Prediction time per iteration: 0.000101089477539
Prediction time per iteration: 0.000236988067627
Prediction time per iteration: 0.0001060962677
Prediction time per iteration: 0.000103950500488
Prediction time per iteration: 0.0002760887146
Prediction time per iteration: 0.000117063522339
Prediction time per iteration: 0.000107049942017
Prediction time per iteration: 0.000104904174805
Prediction time per iteration: 0.000104904174805
Prediction time per iteration: 0.000297069549561
Prediction time per iteration: 0.000117063522339
Prediction time per iteration: 0.0001060962677
Prediction time per iteration: 0.000309944152832
Prediction time per iteration: 0.000112056732178
Prediction time per iteration: 0.000107049942017
Prediction time per iteration: 0.0001060962677
Prediction time per iteration: 0.000113964080811
Prediction time per iteration: 9.89437103271e-05
Prediction time per iteration: 9.91821289062e-05
Prediction time per iteration: 0.000300884246826
Prediction time per iteration: 0.000112056732178
Prediction time per iteration: 0.000105857849121
Prediction time per iteration: 0.0002760887146
Prediction time per iteration: 0.000108957290649
Prediction time per iteration: 0.000102996826172
Prediction time per iteration: 0.000101804733276
Prediction time per iteration: 0.000112056732178
Prediction time per iteration: 0.000100135803223
Prediction time per iteration: 9.58442687988e-05
Prediction time per iteration: 9.60826873779e-05
Prediction time per iteration: 9.48905944824e-05
Prediction time per iteration: 0.000281095504761
Prediction time per iteration: 0.000115156173706
Prediction time per iteration: 0.000105857849121
Prediction time per iteration: 0.000103950500488
Prediction time per iteration: 0.000112056732178
Prediction time per iteration: 0.00010085105896
Prediction time per iteration: 0.000106811523438
Prediction time per iteration: 0.000280141830444
Prediction time per iteration: 0.000181913375854
Prediction time per iteration: 0.000171899795532
Prediction time per iteration: 0.000169038772583
Prediction time per iteration: 0.00018310546875
Prediction time per iteration: 0.000172138214111
Prediction time per iteration: 0.000743865966797
Prediction time per iteration: 0.000195980072021
Prediction time per iteration: 0.000306129455566
Prediction time per iteration: 0.000112056732178
Prediction time per iteration: 0.000104904174805
Prediction time per iteration: 0.000108003616333
Prediction time per iteration: 0.000115156173706
Prediction time per iteration: 9.79900360107e-05
Prediction time per iteration: 9.70363616943e-05
Prediction time per iteration: 0.00362706184387
Prediction time per iteration: 0.000297069549561
Prediction time per iteration: 0.000214099884033
Prediction time per iteration: 0.000207185745239
Prediction time per iteration: 0.00026798248291
Prediction time per iteration: 0.000138998031616
Prediction time per iteration: 0.000118017196655
Prediction time per iteration: 0.000104904174805
Prediction time per iteration: 0.000100135803223
Prediction time per iteration: 9.79900360107e-05
Prediction time per iteration: 0.000290155410767
Prediction time per iteration: 0.000111103057861
Prediction time per iteration: 0.000104904174805
Prediction time per iteration: 0.000102996826172
Prediction time per iteration: 0.000123977661133
Prediction time per iteration: 0.000102043151855
Prediction time per iteration: 0.000266790390015
Prediction time per iteration: 0.000151872634888
Prediction time per iteration: 0.00011682510376
Prediction time per iteration: 0.000108003616333
Prediction time per iteration: 0.000277042388916
Prediction time per iteration: 0.000111103057861
Prediction time per iteration: 0.000114917755127
Prediction time per iteration: 0.000106811523438
Prediction time per iteration: 0.000102996826172
Prediction time per iteration: 9.98973846436e-05
Prediction time per iteration: 9.70363616943e-05
Prediction time per iteration: 0.000308990478516
Prediction time per iteration: 0.000113010406494
Prediction time per iteration: 0.000108003616333
Prediction time per iteration: 0.000107049942017
Prediction time per iteration: 0.000102043151855
Prediction time per iteration: 9.98973846436e-05
Prediction time per iteration: 0.000101089477539
Prediction time per iteration: 0.000100135803223
Prediction time per iteration: 0.000289916992188
Prediction time per iteration: 0.000113010406494
Prediction time per iteration: 0.000104904174805
Prediction time per iteration: 0.0001060962677
Prediction time per iteration: 0.000126838684082
Prediction time per iteration: 0.000115156173706
Prediction time per iteration: 9.79900360107e-05
Prediction time per iteration: 0.000297069549561
Prediction time per iteration: 0.000115156173706
Prediction time per iteration: 0.000103950500488
Prediction time per iteration: 0.000108957290649
Prediction time per iteration: 0.000265121459961
Prediction time per iteration: 0.000116109848022
Prediction time per iteration: 0.000104904174805
Prediction time per iteration: 0.000103235244751
Prediction time per iteration: 0.000114917755127
Prediction time per iteration: 0.000100135803223
Prediction time per iteration: 9.79900360107e-05
Prediction time per iteration: 0.000262022018433
Prediction time per iteration: 0.000108003616333
Prediction time per iteration: 0.000103950500488
Prediction time per iteration: 0.000102996826172
Prediction time per iteration: 0.000113010406494
Prediction time per iteration: 0.000102043151855
Prediction time per iteration: 9.89437103271e-05
Prediction time per iteration: 0.000277042388916
Prediction time per iteration: 0.000113010406494
Prediction time per iteration: 0.000106811523438
Prediction time per iteration: 0.000108003616333
Prediction time per iteration: 0.000112056732178
Prediction time per iteration: 0.000298976898193
Prediction time per iteration: 0.000110864639282
Prediction time per iteration: 0.000104904174805
Prediction time per iteration: 0.000103950500488
Prediction time per iteration: 0.000112056732178
Prediction time per iteration: 9.79900360107e-05
Prediction time per iteration: 0.000277996063232
Prediction time per iteration: 0.000108957290649
Prediction time per iteration: 0.000105857849121
Prediction time per iteration: 0.000102996826172
Prediction time per iteration: 0.000323057174683
Prediction time per iteration: 0.000110864639282
Prediction time per iteration: 0.000103950500488
Prediction time per iteration: 0.000102996826172
Prediction time per iteration: 0.0001060962677
Prediction time per iteration: 0.000292062759399
Prediction time per iteration: 0.000109910964966
Prediction time per iteration: 0.000113010406494
Prediction time per iteration: 0.000104904174805
Prediction time per iteration: 9.79900360107e-05
Prediction time per iteration: 0.000259160995483
Prediction time per iteration: 0.000108957290649
Prediction time per iteration: 0.000103950500488
Prediction time per iteration: 0.0001060962677
Prediction time per iteration: 0.000288009643555
Prediction time per iteration: 0.000133037567139
Prediction time per iteration: 0.000103950500488
Prediction time per iteration: 0.000102043151855
Prediction time per iteration: 0.000108957290649
Prediction time per iteration: 9.51290130615e-05
Prediction time per iteration: 9.60826873779e-05
Prediction time per iteration: 0.000262975692749
Prediction time per iteration: 0.000109910964966
Prediction time per iteration: 0.000104904174805
Prediction time per iteration: 0.0001060962677
Prediction time per iteration: 0.000318050384521
Prediction time per iteration: 0.000113010406494
Prediction time per iteration: 0.0001060962677
Prediction time per iteration: 0.000104904174805
Prediction time per iteration: 0.00011420249939
Prediction time per iteration: 0.000102043151855
Prediction time per iteration: 0.000302076339722
Prediction time per iteration: 0.000113010406494
Prediction time per iteration: 0.000107765197754
Prediction time per iteration: 0.00012993812561
Prediction time per iteration: 0.000119209289551
Prediction time per iteration: 0.00026798248291
Prediction time per iteration: 0.000128030776978
Prediction time per iteration: 0.0001060962677
Prediction time per iteration: 0.000105857849121
Prediction time per iteration: 0.000114917755127
Prediction time per iteration: 0.000272989273071
Prediction time per iteration: 0.000213146209717
Prediction time per iteration: 0.000179052352905
Prediction time per iteration: 0.000176906585693
Prediction time per iteration: 0.000255823135376
Prediction time per iteration: 0.000166893005371
Prediction time per iteration: 0.000159978866577
Prediction time per iteration: 0.00016188621521
Prediction time per iteration: 0.000310182571411
Prediction time per iteration: 0.000129222869873
Prediction time per iteration: 0.0001060962677
Prediction time per iteration: 0.000104904174805
Prediction time per iteration: 0.000102043151855
Prediction time per iteration: 0.00026798248291
Prediction time per iteration: 0.000116109848022
Prediction time per iteration: 0.000109910964966
Prediction time per iteration: 0.000106811523438
Prediction time per iteration: 0.000118017196655
Prediction time per iteration: 0.000260829925537
Prediction time per iteration: 0.000164031982422
Prediction time per iteration: 0.000118017196655
Prediction time per iteration: 0.000110149383545
Prediction time per iteration: 0.000103950500488
Prediction time per iteration: 0.000102043151855
Prediction time per iteration: 0.000102043151855
Prediction time per iteration: 0.000292062759399
Prediction time per iteration: 0.000115156173706
Prediction time per iteration: 0.000128984451294
Prediction time per iteration: 0.000113010406494
Prediction time per iteration: 0.000132083892822
Prediction time per iteration: 0.00025200843811
Prediction time per iteration: 0.000113010406494
Prediction time per iteration: 0.000111818313599
Prediction time per iteration: 0.000103950500488
Prediction time per iteration: 0.000272035598755
Prediction time per iteration: 0.000113010406494
Prediction time per iteration: 0.00032901763916
Prediction time per iteration: 0.000114917755127
Prediction time per iteration: 0.000108957290649
Prediction time per iteration: 0.000109195709229
Prediction time per iteration: 0.000113964080811
Prediction time per iteration: 0.000287055969238
Prediction time per iteration: 0.000111818313599
Prediction time per iteration: 0.000110149383545
Prediction time per iteration: 0.000108957290649
Prediction time per iteration: 0.000113010406494
Prediction time per iteration: 0.000104188919067
Prediction time per iteration: 0.000101804733276
Prediction time per iteration: 0.000314950942993
Prediction time per iteration: 0.000132083892822
Prediction time per iteration: 0.000108957290649
Prediction time per iteration: 0.000296831130981
Prediction time per iteration: 0.000144958496094
Prediction time per iteration: 0.00012993812561
Prediction time per iteration: 0.000108957290649
Prediction time per iteration: 0.000309944152832
Prediction time per iteration: 0.000113010406494
Prediction time per iteration: 0.000133037567139
Prediction time per iteration: 0.000111103057861
Prediction time per iteration: 0.000126838684082
Prediction time per iteration: 0.000304937362671
Prediction time per iteration: 0.000113964080811
Prediction time per iteration: 0.000113010406494
Prediction time per iteration: 0.0001060962677
Prediction time per iteration: 0.000101804733276
Prediction time per iteration: 0.000304937362671
Prediction time per iteration: 0.000113010406494
Prediction time per iteration: 0.000108003616333
Prediction time per iteration: 0.0001220703125
Prediction time per iteration: 0.000104904174805
Prediction time per iteration: 0.00026798248291
Prediction time per iteration: 0.000111103057861
Prediction time per iteration: 0.000111103057861
Prediction time per iteration: 0.000108003616333
Prediction time per iteration: 0.000113964080811
Prediction time per iteration: 0.000102043151855
Prediction time per iteration: 0.00025200843811
Prediction time per iteration: 0.000115156173706
Prediction time per iteration: 0.000111103057861
Prediction time per iteration: 0.000106811523438
Prediction time per iteration: 0.000115156173706
Prediction time per iteration: 0.000102043151855
Prediction time per iteration: 0.000103950500488
Prediction time per iteration: 0.000303983688354
Prediction time per iteration: 0.000118970870972
Prediction time per iteration: 0.000111103057861
Prediction time per iteration: 0.000106811523438
Prediction time per iteration: 0.0001060962677
Prediction time per iteration: 0.000123977661133
Prediction time per iteration: 0.000102996826172
Prediction time per iteration: 0.000330209732056
Prediction time per iteration: 0.0002760887146
Prediction time per iteration: 0.000108957290649
Prediction time per iteration: 0.000105857849121
Prediction time per iteration: 0.000102996826172
Prediction time per iteration: 9.79900360107e-05
Prediction time per iteration: 0.000283002853394
Prediction time per iteration: 0.000109910964966
Prediction time per iteration: 0.000103950500488
Prediction time per iteration: 0.000105857849121
Prediction time per iteration: 0.000298023223877
Prediction time per iteration: 0.000113964080811
Prediction time per iteration: 0.000107049942017
Prediction time per iteration: 0.0001060962677
Prediction time per iteration: 0.000112056732178
Prediction time per iteration: 0.000294208526611
Prediction time per iteration: 0.000115871429443
Prediction time per iteration: 0.000111103057861
Prediction time per iteration: 0.000108003616333
Prediction time per iteration: 0.000105857849121
Prediction time per iteration: 0.000255107879639
Prediction time per iteration: 0.000104904174805
Prediction time per iteration: 0.000113964080811
Prediction time per iteration: 0.000103950500488
Prediction time per iteration: 0.000103950500488
Prediction time per iteration: 0.00025200843811
Prediction time per iteration: 0.000108957290649
Prediction time per iteration: 0.000113964080811
Prediction time per iteration: 0.0001060962677
Prediction time per iteration: 0.000112056732178
Prediction time per iteration: 0.000276803970337
Prediction time per iteration: 0.000112056732178
Prediction time per iteration: 0.0001060962677
Prediction time per iteration: 0.000113964080811
Prediction time per iteration: 0.000244855880737
Prediction time per iteration: 0.000133037567139
Prediction time per iteration: 0.000124931335449
Prediction time per iteration: 0.000102043151855
Prediction time per iteration: 0.000263929367065
Prediction time per iteration: 0.000106811523438
Prediction time per iteration: 0.000104904174805
Prediction time per iteration: 0.000101089477539
Prediction time per iteration: 0.000251054763794
Prediction time per iteration: 0.000108003616333
Prediction time per iteration: 0.000113010406494
Prediction time per iteration: 9.98973846436e-05
Prediction time per iteration: 0.000102043151855
Prediction time per iteration: 9.70363616943e-05
Prediction time per iteration: 0.000262022018433
Prediction time per iteration: 0.000105857849121
Prediction time per iteration: 0.000102996826172
Prediction time per iteration: 0.00010085105896
Prediction time per iteration: 0.000236988067627
Prediction time per iteration: 0.000104904174805
Prediction time per iteration: 0.000102043151855
Prediction time per iteration: 0.00010085105896
Prediction time per iteration: 0.000262975692749
Prediction time per iteration: 0.000116109848022
Prediction time per iteration: 0.000112056732178
Prediction time per iteration: 0.000103950500488
Prediction time per iteration: 0.000102996826172
Prediction time per iteration: 0.000157117843628
Prediction time per iteration: 0.000266790390015
Prediction time per iteration: 0.000108003616333
Prediction time per iteration: 0.000103950500488
Prediction time per iteration: 0.000114917755127
Prediction time per iteration: 0.000103950500488
Prediction time per iteration: 9.20295715332e-05
Prediction time per iteration: 8.98838043213e-05
Prediction time per iteration: 8.89301300049e-05
Prediction time per iteration: 8.89301300049e-05
Prediction time per iteration: 0.000224828720093
Prediction time per iteration: 0.000103950500488
Prediction time per iteration: 0.00010085105896
Prediction time per iteration: 0.000101089477539
Prediction time per iteration: 0.00025200843811
Prediction time per iteration: 0.000105857849121
Prediction time per iteration: 0.00010085105896
Prediction time per iteration: 0.000736951828003
Prediction time per iteration: 0.000241041183472
Prediction time per iteration: 0.000197887420654
Prediction time per iteration: 0.000243902206421
Prediction time per iteration: 0.000123977661133
Prediction time per iteration: 0.000120162963867
Prediction time per iteration: 0.000114917755127
Prediction time per iteration: 0.000262022018433
Prediction time per iteration: 0.00019097328186
Prediction time per iteration: 0.000185966491699
Prediction time per iteration: 0.000181913375854
Prediction time per iteration: 0.000173807144165
Prediction time per iteration: 0.000172138214111
Prediction time per iteration: 0.000172138214111
Prediction time per iteration: 0.000171899795532
Prediction time per iteration: 0.00827503204346
Prediction time per iteration: 0.000668048858643
Prediction time per iteration: 0.000401020050049
Prediction time per iteration: 0.000340223312378
Prediction time per iteration: 0.000325918197632
Prediction time per iteration: 0.000342130661011
Prediction time per iteration: 0.000325202941895
Prediction time per iteration: 0.000113964080811
Prediction time per iteration: 0.000108003616333
Prediction time per iteration: 0.000108957290649
Prediction time per iteration: 0.000104188919067
Prediction time per iteration: 0.000101804733276
Prediction time per iteration: 0.000298976898193
Prediction time per iteration: 0.000108957290649
Prediction time per iteration: 0.000105857849121
Prediction time per iteration: 0.000103950500488
Prediction time per iteration: 0.000101089477539
Prediction time per iteration: 0.000186920166016
Prediction time per iteration: 0.000110149383545
Prediction time per iteration: 0.000107049942017
Prediction time per iteration: 0.000205039978027
Prediction time per iteration: 0.000108003616333
Prediction time per iteration: 0.000292062759399
Prediction time per iteration: 0.000119924545288
Prediction time per iteration: 0.000117063522339
Prediction time per iteration: 0.000108957290649
Prediction time per iteration: 0.000118017196655
Prediction time per iteration: 0.000113964080811
Prediction time per iteration: 0.000258922576904
Prediction time per iteration: 0.000111818313599
Prediction time per iteration: 0.000107049942017
Prediction time per iteration: 0.000262975692749
Prediction time per iteration: 0.000112771987915
Prediction time per iteration: 0.000108003616333
Prediction time per iteration: 0.000107049942017
Prediction time per iteration: 0.000108957290649
Prediction time per iteration: 0.000278949737549
Prediction time per iteration: 0.00011420249939
Prediction time per iteration: 0.000109910964966
Prediction time per iteration: 0.000127077102661
Prediction time per iteration: 0.000113964080811
Prediction time per iteration: 0.000101089477539
Prediction time per iteration: 0.000100135803223
Prediction time per iteration: 0.000294208526611
Prediction time per iteration: 0.000111103057861
Prediction time per iteration: 0.0001060962677
Prediction time per iteration: 0.000108957290649
Prediction time per iteration: 0.000118017196655
Prediction time per iteration: 0.000100135803223
Prediction time per iteration: 0.000299215316772
Prediction time per iteration: 0.000131130218506
Prediction time per iteration: 0.000207901000977
Prediction time per iteration: 0.000113964080811
Prediction time per iteration: 0.000275135040283
Prediction time per iteration: 0.000110864639282
Prediction time per iteration: 0.0001060962677
Prediction time per iteration: 0.000108003616333
Prediction time per iteration: 9.98973846436e-05
Prediction time per iteration: 0.000268936157227
Prediction time per iteration: 0.000108957290649
Prediction time per iteration: 0.000108003616333
Prediction time per iteration: 0.000102043151855
Prediction time per iteration: 0.000102043151855
Prediction time per iteration: 0.000119924545288
Prediction time per iteration: 0.000119924545288
Prediction time per iteration: 0.000263929367065
Prediction time per iteration: 0.000125885009766
Prediction time per iteration: 0.000111103057861
Prediction time per iteration: 0.000120162963867
Prediction time per iteration: 0.000105857849121
Prediction time per iteration: 0.000106811523438
Prediction time per iteration: 0.000103950500488
Prediction time per iteration: 0.000260829925537
Prediction time per iteration: 0.000132083892822
Prediction time per iteration: 0.000118017196655
Prediction time per iteration: 9.98973846436e-05
Prediction time per iteration: 0.000105142593384
Prediction time per iteration: 0.000102996826172
Prediction time per iteration: 0.00012993812561
Prediction time per iteration: 0.000101089477539
Prediction time per iteration: 0.000297069549561
Prediction time per iteration: 0.000109910964966
Prediction time per iteration: 0.000279903411865
Prediction time per iteration: 0.000103950500488
Prediction time per iteration: 0.000113010406494
Prediction time per iteration: 0.000254154205322
Prediction time per iteration: 0.000111103057861
Prediction time per iteration: 0.0001060962677
Prediction time per iteration: 0.000102996826172
Prediction time per iteration: 0.000101089477539
Prediction time per iteration: 0.000241041183472
Prediction time per iteration: 0.000102996826172
Prediction time per iteration: 9.89437103271e-05
Prediction time per iteration: 9.79900360107e-05
Prediction time per iteration: 9.29832458496e-05
Prediction time per iteration: 0.000240802764893
Prediction time per iteration: 0.000103950500488
Prediction time per iteration: 0.00010085105896
Prediction time per iteration: 9.70363616943e-05
Prediction time per iteration: 0.000245094299316
Prediction time per iteration: 0.000109910964966
Prediction time per iteration: 0.000106811523438
Prediction time per iteration: 0.000109910964966
Prediction time per iteration: 9.29832458496e-05
Prediction time per iteration: 9.20295715332e-05
Prediction time per iteration: 9.20295715332e-05
Prediction time per iteration: 0.000246047973633
Prediction time per iteration: 0.000119924545288
Prediction time per iteration: 0.000115156173706
Prediction time per iteration: 0.000137090682983
Prediction time per iteration: 0.000117063522339
Prediction time per iteration: 0.000241994857788
Prediction time per iteration: 0.000118017196655
Prediction time per iteration: 0.000108957290649
Prediction time per iteration: 0.000117063522339
Prediction time per iteration: 0.000101089477539
Prediction time per iteration: 9.79900360107e-05
Prediction time per iteration: 0.000248908996582
Prediction time per iteration: 0.000108957290649
Prediction time per iteration: 0.000103950500488
Prediction time per iteration: 0.000104904174805
Prediction time per iteration: 0.000261068344116
Prediction time per iteration: 0.000108003616333
Prediction time per iteration: 0.000103950500488
Prediction time per iteration: 0.00010085105896
Prediction time per iteration: 0.000100135803223
Prediction time per iteration: 0.000104904174805
Prediction time per iteration: 0.000242948532104
Prediction time per iteration: 0.000104904174805
Prediction time per iteration: 0.000104188919067
Prediction time per iteration: 0.000100135803223
Prediction time per iteration: 9.91821289062e-05
Prediction time per iteration: 0.000123977661133
Prediction time per iteration: 0.000247955322266
Prediction time per iteration: 0.000111103057861
Prediction time per iteration: 0.000108957290649
Prediction time per iteration: 0.000119924545288
Prediction time per iteration: 9.98973846436e-05
Prediction time per iteration: 0.000274896621704
Prediction time per iteration: 0.000109910964966
Prediction time per iteration: 0.000105142593384
Prediction time per iteration: 0.000102996826172
Prediction time per iteration: 0.000111103057861
Prediction time per iteration: 9.89437103271e-05
Prediction time per iteration: 0.000312089920044
Prediction time per iteration: 0.000143051147461
Prediction time per iteration: 0.000103950500488
Prediction time per iteration: 0.000102996826172
Prediction time per iteration: 0.000265121459961
Prediction time per iteration: 0.000113010406494
Prediction time per iteration: 0.000108003616333
Prediction time per iteration: 0.000108003616333
Prediction time per iteration: 0.000264167785645
Prediction time per iteration: 0.000110864639282
Prediction time per iteration: 0.000104188919067
Prediction time per iteration: 0.000332117080688
Prediction time per iteration: 0.000180006027222
Prediction time per iteration: 0.000202178955078
Prediction time per iteration: 0.000173091888428
Prediction time per iteration: 0.000170946121216
Prediction time per iteration: 0.000163078308105
Prediction time per iteration: 0.000164031982422
Prediction time per iteration: 0.000162839889526
Prediction time per iteration: 0.000166893005371
Prediction time per iteration: 0.000261068344116
Prediction time per iteration: 0.000126123428345
Prediction time per iteration: 0.000113010406494
Prediction time per iteration: 0.00025200843811
Prediction time per iteration: 0.000125885009766
Prediction time per iteration: 0.000119924545288
Prediction time per iteration: 0.000113010406494
Prediction time per iteration: 0.000328063964844
Prediction time per iteration: 0.000110149383545
Prediction time per iteration: 0.000105857849121
Prediction time per iteration: 0.000102996826172
Prediction time per iteration: 0.000289916992188
Prediction time per iteration: 0.000126123428345
Prediction time per iteration: 0.000109910964966
Prediction time per iteration: 0.00011682510376
Prediction time per iteration: 0.000262022018433
Prediction time per iteration: 0.000115156173706
Prediction time per iteration: 0.000112056732178
Prediction time per iteration: 0.000118970870972
Prediction time per iteration: 0.000104188919067
Prediction time per iteration: 0.000265121459961
Prediction time per iteration: 0.000107049942017
Prediction time per iteration: 0.000102043151855
Prediction time per iteration: 0.000101089477539
Prediction time per iteration: 9.89437103271e-05
Prediction time per iteration: 0.000296115875244
Prediction time per iteration: 0.000110864639282
Prediction time per iteration: 0.0001060962677
Prediction time per iteration: 0.000103950500488
Prediction time per iteration: 0.000110864639282
Prediction time per iteration: 0.000275135040283
Prediction time per iteration: 0.000110149383545
Prediction time per iteration: 0.000104904174805
Prediction time per iteration: 0.000301837921143
Prediction time per iteration: 0.000118017196655
Prediction time per iteration: 0.000257015228271
Prediction time per iteration: 0.000112056732178
Prediction time per iteration: 0.000104904174805
Prediction time per iteration: 0.000117063522339
Prediction time per iteration: 0.000114917755127
Prediction time per iteration: 9.89437103271e-05
Prediction time per iteration: 9.79900360107e-05
Prediction time per iteration: 0.000262022018433
Prediction time per iteration: 0.000109910964966
Prediction time per iteration: 0.000105142593384
Prediction time per iteration: 0.000123023986816
Prediction time per iteration: 0.000126123428345
Prediction time per iteration: 0.000301837921143
Prediction time per iteration: 0.000111818313599
Prediction time per iteration: 0.000133037567139
Prediction time per iteration: 0.000134944915771
Prediction time per iteration: 0.000101089477539
Prediction time per iteration: 0.000262022018433
Prediction time per iteration: 0.000257015228271
Prediction time per iteration: 0.000121831893921
Prediction time per iteration: 0.000129222869873
Prediction time per iteration: 0.000108957290649
Prediction time per iteration: 0.000105142593384
Prediction time per iteration: 0.000114917755127
Prediction time per iteration: 0.000264883041382
Prediction time per iteration: 0.000123977661133
Prediction time per iteration: 0.000122785568237
Prediction time per iteration: 0.000107049942017
Prediction time per iteration: 0.000102043151855
Prediction time per iteration: 0.00010085105896
Prediction time per iteration: 0.000101804733276
Prediction time per iteration: 0.000300884246826
Prediction time per iteration: 0.000107049942017
Prediction time per iteration: 0.000113010406494
Prediction time per iteration: 0.000107049942017
Prediction time per iteration: 0.000101089477539
Prediction time per iteration: 0.000104188919067
Prediction time per iteration: 0.000221014022827
Prediction time per iteration: 0.000112056732178
Prediction time per iteration: 0.000108003616333
Prediction time per iteration: 0.000105857849121
Prediction time per iteration: 0.000112056732178
Prediction time per iteration: 0.000102996826172
Prediction time per iteration: 9.98973846436e-05
Prediction time per iteration: 0.000147104263306
Prediction time per iteration: 0.000248908996582
Prediction time per iteration: 0.000126123428345
Prediction time per iteration: 0.000108957290649
Prediction time per iteration: 0.000113010406494
Prediction time per iteration: 0.000102996826172
Prediction time per iteration: 0.000253915786743
Prediction time per iteration: 0.000110864639282
Prediction time per iteration: 0.000106811523438
Prediction time per iteration: 0.000103950500488
Prediction time per iteration: 0.000254154205322
Prediction time per iteration: 0.000110149383545
Prediction time per iteration: 0.000102996826172
Prediction time per iteration: 0.000263929367065
Prediction time per iteration: 0.000109910964966
Prediction time per iteration: 0.0001060962677
Prediction time per iteration: 0.000103950500488
Prediction time per iteration: 0.000103950500488
Prediction time per iteration: 0.000121116638184
Prediction time per iteration: 0.00815796852112
Prediction time per iteration: 0.000547170639038
Prediction time per iteration: 0.000353813171387
Prediction time per iteration: 0.000314950942993
Prediction time per iteration: 0.000311851501465
Prediction time per iteration: 0.00056791305542
Prediction time per iteration: 0.000237941741943
Prediction time per iteration: 0.000380039215088
Prediction time per iteration: 0.000228881835938
Prediction time per iteration: 0.000209808349609
Prediction time per iteration: 0.000260829925537
Prediction time per iteration: 0.000112056732178
Prediction time per iteration: 0.000108957290649
Prediction time per iteration: 0.000108003616333
Prediction time per iteration: 0.000102996826172
Prediction time per iteration: 0.000264883041382
Prediction time per iteration: 0.000113964080811
Prediction time per iteration: 0.000108957290649
Prediction time per iteration: 0.000236034393311
Prediction time per iteration: 0.0001060962677
Prediction time per iteration: 0.000102996826172
Prediction time per iteration: 0.00010085105896
Prediction time per iteration: 0.000108003616333
Prediction time per iteration: 9.10758972168e-05
Prediction time per iteration: 8.98838043213e-05
Prediction time per iteration: 0.000235080718994
Prediction time per iteration: 0.000160932540894
Prediction time per iteration: 0.000156164169312
Prediction time per iteration: 0.000154972076416
Prediction time per iteration: 0.000150918960571
Prediction time per iteration: 0.000258922576904
Prediction time per iteration: 0.000108003616333
Prediction time per iteration: 0.000102043151855
Prediction time per iteration: 0.000101089477539
Prediction time per iteration: 0.000109910964966
Prediction time per iteration: 9.51290130615e-05
Prediction time per iteration: 0.000264883041382
Prediction time per iteration: 0.000109195709229
Prediction time per iteration: 0.000102996826172
Prediction time per iteration: 0.000102043151855
Prediction time per iteration: 0.000113010406494
Prediction time per iteration: 0.000256061553955
Prediction time per iteration: 0.000115156173706
Prediction time per iteration: 0.000103950500488
Prediction time per iteration: 0.000101804733276
Prediction time per iteration: 0.000607013702393
Prediction time per iteration: 0.00011682510376
Prediction time per iteration: 0.000109910964966
Prediction time per iteration: 0.000103950500488
Prediction time per iteration: 0.000102043151855
Prediction time per iteration: 9.79900360107e-05
Prediction time per iteration: 0.00025200843811
Prediction time per iteration: 0.000108003616333
Prediction time per iteration: 0.000288009643555
Prediction time per iteration: 0.000108003616333
Prediction time per iteration: 0.000107049942017
Prediction time per iteration: 0.00010085105896
Prediction time per iteration: 0.000111103057861
Prediction time per iteration: 0.000286102294922
Prediction time per iteration: 0.000113010406494
Prediction time per iteration: 0.000104188919067
Prediction time per iteration: 0.000102043151855
Prediction time per iteration: 0.000110864639282
Prediction time per iteration: 9.51290130615e-05
Prediction time per iteration: 9.3936920166e-05
Prediction time per iteration: 0.00022292137146
Prediction time per iteration: 0.000104188919067
Prediction time per iteration: 0.000131130218506
Prediction time per iteration: 0.000112056732178
Prediction time per iteration: 9.20295715332e-05
Prediction time per iteration: 0.000265836715698
Prediction time per iteration: 0.000112771987915
Prediction time per iteration: 0.0001060962677
Prediction time per iteration: 0.000269889831543
Prediction time per iteration: 0.000110149383545
Prediction time per iteration: 0.000103950500488
Prediction time per iteration: 0.00010085105896
Prediction time per iteration: 0.000113964080811
Prediction time per iteration: 9.70363616943e-05
Prediction time per iteration: 0.000247001647949
Prediction time per iteration: 0.000108957290649
Prediction time per iteration: 0.000103950500488
Prediction time per iteration: 0.000102043151855
Prediction time per iteration: 9.70363616943e-05
Prediction time per iteration: 9.79900360107e-05
Prediction time per iteration: 0.000253915786743
Prediction time per iteration: 0.000102043151855
Prediction time per iteration: 0.000164031982422
Prediction time per iteration: 0.0001060962677
Prediction time per iteration: 0.000102996826172
Prediction time per iteration: 0.000272035598755
Prediction time per iteration: 0.000109195709229
Prediction time per iteration: 0.000107049942017
Prediction time per iteration: 0.000100135803223
Prediction time per iteration: 0.000239133834839
Prediction time per iteration: 0.000108003616333
Prediction time per iteration: 0.000102043151855
Prediction time per iteration: 0.000102043151855
Prediction time per iteration: 0.000103235244751
Prediction time per iteration: 0.000256061553955
Prediction time per iteration: 0.000108003616333
Prediction time per iteration: 0.000103950500488
Prediction time per iteration: 0.000102043151855
Prediction time per iteration: 0.000109195709229
Prediction time per iteration: 9.70363616943e-05
Prediction time per iteration: 0.000231981277466
Prediction time per iteration: 0.000108003616333
Prediction time per iteration: 0.0001060962677
Prediction time per iteration: 0.000101089477539
Prediction time per iteration: 0.000110149383545
Prediction time per iteration: 0.000265836715698
Prediction time per iteration: 0.000109910964966
Prediction time per iteration: 0.000227928161621
Prediction time per iteration: 0.000109910964966
Prediction time per iteration: 0.000102996826172
Prediction time per iteration: 0.000283002853394
Prediction time per iteration: 0.000121116638184
Prediction time per iteration: 0.000111103057861
Prediction time per iteration: 0.000113964080811
Prediction time per iteration: 0.000253915786743
Prediction time per iteration: 0.000146865844727
Prediction time per iteration: 0.0001060962677
Prediction time per iteration: 0.000249862670898
Prediction time per iteration: 0.000118017196655
Prediction time per iteration: 0.000103950500488
Prediction time per iteration: 0.000102043151855
Prediction time per iteration: 9.70363616943e-05
Prediction time per iteration: 9.58442687988e-05
Prediction time per iteration: 9.48905944824e-05
Prediction time per iteration: 0.000236988067627
Prediction time per iteration: 0.000114917755127
Prediction time per iteration: 0.000101089477539
Prediction time per iteration: 0.000109910964966
Prediction time per iteration: 0.000236034393311
Prediction time per iteration: 0.000110864639282
Prediction time per iteration: 0.000102996826172
Prediction time per iteration: 0.00011420249939
Prediction time per iteration: 0.000412940979004
Prediction time per iteration: 0.000200033187866
Prediction time per iteration: 0.000187873840332
Prediction time per iteration: 0.000195026397705
Prediction time per iteration: 0.000186920166016
Prediction time per iteration: 0.000287055969238
Prediction time per iteration: 0.000112056732178
Prediction time per iteration: 0.000108003616333
Prediction time per iteration: 0.000102996826172
Prediction time per iteration: 0.0002601146698
Prediction time per iteration: 0.000112056732178
Prediction time per iteration: 0.000144004821777
Prediction time per iteration: 0.0001060962677
Prediction time per iteration: 0.000102043151855
Prediction time per iteration: 0.000113964080811
Prediction time per iteration: 0.000240802764893
Prediction time per iteration: 0.000108957290649
Prediction time per iteration: 0.000108957290649
Prediction time per iteration: 0.000105142593384
Prediction time per iteration: 0.000100135803223
Prediction time per iteration: 0.000109910964966
Prediction time per iteration: 0.000241041183472
Prediction time per iteration: 0.0001380443573
Prediction time per iteration: 0.000108957290649
Prediction time per iteration: 0.000105142593384
Prediction time per iteration: 0.000211000442505
Prediction time per iteration: 0.000120162963867
Prediction time per iteration: 0.000121831893921
Prediction time per iteration: 0.000127077102661
Prediction time per iteration: 0.000102043151855
Prediction time per iteration: 0.000260829925537
Prediction time per iteration: 0.000119924545288
Prediction time per iteration: 0.000107049942017
Prediction time per iteration: 0.000115871429443
Prediction time per iteration: 0.000102996826172
Prediction time per iteration: 0.000108003616333
Prediction time per iteration: 0.000267028808594
Prediction time per iteration: 0.000117063522339
Prediction time per iteration: 0.000103950500488
Prediction time per iteration: 0.000241041183472
Prediction time per iteration: 0.000107049942017
Prediction time per iteration: 0.000270128250122
Prediction time per iteration: 0.000111818313599
Prediction time per iteration: 0.000104904174805
Prediction time per iteration: 0.000103950500488
Prediction time per iteration: 0.000102043151855
Prediction time per iteration: 0.00023889541626
Prediction time per iteration: 0.000194072723389
Prediction time per iteration: 0.000174045562744
Prediction time per iteration: 0.000164985656738
Prediction time per iteration: 0.000237941741943
Prediction time per iteration: 0.000114917755127
Prediction time per iteration: 0.000132083892822
Prediction time per iteration: 0.000107049942017
Prediction time per iteration: 0.000261068344116
Prediction time per iteration: 0.000119924545288
Prediction time per iteration: 0.000104904174805
Prediction time per iteration: 0.000118017196655
Prediction time per iteration: 0.000247955322266
Prediction time per iteration: 0.000107049942017
Prediction time per iteration: 0.000103950500488
Prediction time per iteration: 0.000121116638184
Prediction time per iteration: 0.000241994857788
Prediction time per iteration: 0.000108003616333
Prediction time per iteration: 0.000131845474243
Prediction time per iteration: 0.000108003616333
Prediction time per iteration: 0.000109910964966
Prediction time per iteration: 9.89437103271e-05
Prediction time per iteration: 9.89437103271e-05
Prediction time per iteration: 9.70363616943e-05
Prediction time per iteration: 0.000249147415161
Prediction time per iteration: 0.000108003616333
Prediction time per iteration: 0.000102996826172
Prediction time per iteration: 0.000102996826172
Prediction time per iteration: 9.79900360107e-05
Prediction time per iteration: 9.79900360107e-05
Prediction time per iteration: 0.000252962112427
Prediction time per iteration: 0.0001060962677
Prediction time per iteration: 0.000103950500488
Prediction time per iteration: 0.000102043151855
Prediction time per iteration: 0.000110149383545
Prediction time per iteration: 9.60826873779e-05
Prediction time per iteration: 0.000204086303711
Prediction time per iteration: 0.000108957290649
Prediction time per iteration: 0.000123023986816
Prediction time per iteration: 0.000105857849121
Prediction time per iteration: 0.000233888626099
Prediction time per iteration: 0.000107049942017
Prediction time per iteration: 0.000103950500488
Prediction time per iteration: 0.000103235244751
Prediction time per iteration: 0.000109910964966
Prediction time per iteration: 9.60826873779e-05
Prediction time per iteration: 0.000257015228271
Prediction time per iteration: 0.000112056732178
Prediction time per iteration: 0.000105142593384
Prediction time per iteration: 0.000104904174805
Prediction time per iteration: 0.0002601146698
Prediction time per iteration: 0.000111103057861
Prediction time per iteration: 0.000105857849121
Prediction time per iteration: 0.000108003616333
Prediction time per iteration: 0.000112056732178
Prediction time per iteration: 0.000120162963867
Prediction time per iteration: 9.89437103271e-05
Prediction time per iteration: 9.79900360107e-05
Prediction time per iteration: 0.00025200843811
Prediction time per iteration: 0.000109910964966
Prediction time per iteration: 0.0001060962677
Prediction time per iteration: 0.000102043151855
Prediction time per iteration: 0.000282049179077
Prediction time per iteration: 0.00011682510376
Prediction time per iteration: 0.000107049942017
Prediction time per iteration: 0.000103950500488
Prediction time per iteration: 0.000268936157227
Prediction time per iteration: 0.000112056732178
Prediction time per iteration: 0.000105142593384
Prediction time per iteration: 0.000101089477539
Prediction time per iteration: 0.000105857849121
Prediction time per iteration: 0.000272989273071
Prediction time per iteration: 0.000113964080811
Prediction time per iteration: 0.000102043151855
Prediction time per iteration: 0.00010085105896
Prediction time per iteration: 0.000242948532104
Prediction time per iteration: 0.000107049942017
Prediction time per iteration: 0.000103950500488
Prediction time per iteration: 0.000101804733276
Prediction time per iteration: 0.00010085105896
Prediction time per iteration: 0.000221967697144
Prediction time per iteration: 0.000109195709229
Prediction time per iteration: 0.000102043151855
Prediction time per iteration: 0.0001060962677
Prediction time per iteration: 0.000102043151855
Prediction time per iteration: 0.000100135803223
Prediction time per iteration: 0.000100135803223
Prediction time per iteration: 0.000262975692749
Prediction time per iteration: 0.000113964080811
Prediction time per iteration: 0.000149011611938
Prediction time per iteration: 0.000113010406494
Prediction time per iteration: 0.000529050827026
Prediction time per iteration: 0.000137090682983
Prediction time per iteration: 0.0002760887146
Prediction time per iteration: 0.0001220703125
Prediction time per iteration: 0.000117063522339
Prediction time per iteration: 0.000108957290649
Prediction time per iteration: 0.000107049942017
Prediction time per iteration: 0.0002760887146
Prediction time per iteration: 0.000123977661133
Prediction time per iteration: 0.0001060962677
Prediction time per iteration: 0.000113964080811
Prediction time per iteration: 0.000263929367065
Prediction time per iteration: 0.000110864639282
Prediction time per iteration: 0.000106811523438
Prediction time per iteration: 0.000153779983521
Prediction time per iteration: 0.000121116638184
Prediction time per iteration: 9.70363616943e-05
Prediction time per iteration: 9.51290130615e-05
Prediction time per iteration: 9.60826873779e-05
Prediction time per iteration: 0.000251054763794
Prediction time per iteration: 0.000108003616333
Prediction time per iteration: 0.000102996826172
Prediction time per iteration: 0.0001220703125
Prediction time per iteration: 0.000114917755127
Prediction time per iteration: 0.000241041183472
Prediction time per iteration: 0.000117063522339
Prediction time per iteration: 0.000103950500488
Prediction time per iteration: 0.000102043151855
Prediction time per iteration: 0.000221967697144
Prediction time per iteration: 0.000118017196655
Prediction time per iteration: 0.0001060962677
Prediction time per iteration: 0.000123977661133
Prediction time per iteration: 0.00012993812561
Prediction time per iteration: 0.000253915786743
Prediction time per iteration: 0.000104188919067
Prediction time per iteration: 9.89437103271e-05
Prediction time per iteration: 9.91821289062e-05
Prediction time per iteration: 0.000102043151855
Prediction time per iteration: 8.79764556885e-05
Prediction time per iteration: 0.000235795974731
Prediction time per iteration: 0.000103950500488
Prediction time per iteration: 9.10758972168e-05
Prediction time per iteration: 0.00025200843811
Prediction time per iteration: 0.000103950500488
Prediction time per iteration: 9.89437103271e-05
Prediction time per iteration: 9.91821289062e-05
Prediction time per iteration: 9.79900360107e-05
Prediction time per iteration: 0.000252962112427
Prediction time per iteration: 0.000108957290649
Prediction time per iteration: 0.000102996826172
Prediction time per iteration: 0.000219106674194
Prediction time per iteration: 0.00011682510376
Prediction time per iteration: 0.000108003616333
Prediction time per iteration: 0.000112056732178
Prediction time per iteration: 9.70363616943e-05
Prediction time per iteration: 0.0001060962677
Prediction time per iteration: 8.79764556885e-05
Prediction time per iteration: 0.00026798248291
Prediction time per iteration: 0.000140905380249
Prediction time per iteration: 0.000127077102661
Prediction time per iteration: 0.000101089477539
Prediction time per iteration: 9.79900360107e-05
Prediction time per iteration: 0.000107049942017
Prediction time per iteration: 0.000239133834839
Prediction time per iteration: 0.000123977661133
Prediction time per iteration: 0.000118017196655
Prediction time per iteration: 0.000101089477539
Prediction time per iteration: 0.000103950500488
Prediction time per iteration: 9.58442687988e-05
Prediction time per iteration: 0.000249147415161
Prediction time per iteration: 0.000120162963867
Prediction time per iteration: 0.0001060962677
Prediction time per iteration: 0.000109910964966
Prediction time per iteration: 0.000264883041382
Prediction time per iteration: 0.000107049942017
Prediction time per iteration: 0.00025200843811
Prediction time per iteration: 0.000117063522339
Prediction time per iteration: 0.000102996826172
Prediction time per iteration: 0.000113010406494
Prediction time per iteration: 0.000236034393311
Prediction time per iteration: 0.000118017196655
Prediction time per iteration: 0.000108003616333
Prediction time per iteration: 0.000195026397705
Prediction time per iteration: 0.000105142593384
Prediction time per iteration: 9.89437103271e-05
Prediction time per iteration: 9.79900360107e-05
Prediction time per iteration: 0.000107049942017
Prediction time per iteration: 0.000205993652344
Prediction time per iteration: 0.000108957290649
Prediction time per iteration: 0.000107765197754
Prediction time per iteration: 0.000109910964966
Prediction time per iteration: 0.000102043151855
Prediction time per iteration: 0.000248908996582
Prediction time per iteration: 0.000108003616333
Prediction time per iteration: 0.000111103057861
Prediction time per iteration: 0.000102996826172
Prediction time per iteration: 0.000108003616333
Prediction time per iteration: 0.000115871429443
Prediction time per iteration: 0.00022292137146
Prediction time per iteration: 0.000111103057861
Prediction time per iteration: 0.0001060962677
Prediction time per iteration: 0.000136137008667
Prediction time per iteration: 9.51290130615e-05
Prediction time per iteration: 9.89437103271e-05
Prediction time per iteration: 9.51290130615e-05
Prediction time per iteration: 0.000283002853394
Prediction time per iteration: 0.000131130218506
Prediction time per iteration: 0.000102996826172
Prediction time per iteration: 0.000101804733276
Prediction time per iteration: 0.000108957290649
Prediction time per iteration: 9.60826873779e-05
Prediction time per iteration: 0.000279903411865
Prediction time per iteration: 0.000120878219604
Prediction time per iteration: 0.000108957290649
Prediction time per iteration: 0.000274896621704
Prediction time per iteration: 0.000109910964966
Prediction time per iteration: 9.89437103271e-05
Prediction time per iteration: 0.000111818313599
Prediction time per iteration: 9.58442687988e-05
Prediction time per iteration: 0.000262022018433
Prediction time per iteration: 0.000119924545288
Prediction time per iteration: 0.000103950500488
Prediction time per iteration: 0.000104904174805
Prediction time per iteration: 0.000102996826172
Prediction time per iteration: 0.000248908996582
Prediction time per iteration: 0.000134944915771
Prediction time per iteration: 0.000101089477539
Prediction time per iteration: 9.48905944824e-05
Prediction time per iteration: 0.000247955322266
Prediction time per iteration: 0.000118017196655
Prediction time per iteration: 0.000103950500488
Prediction time per iteration: 0.000111103057861
Prediction time per iteration: 0.00025200843811
Prediction time per iteration: 0.000105857849121
Prediction time per iteration: 0.000102043151855
Prediction time per iteration: 0.000104188919067
Prediction time per iteration: 0.000125885009766
Prediction time per iteration: 0.000110149383545
Prediction time per iteration: 9.98973846436e-05
Prediction time per iteration: 0.000287055969238
Prediction time per iteration: 0.000112056732178
Prediction time per iteration: 0.000104904174805
Prediction time per iteration: 0.000256061553955
Prediction time per iteration: 0.0001060962677
Prediction time per iteration: 0.000103950500488
Prediction time per iteration: 0.0001060962677
Prediction time per iteration: 0.000108003616333
Prediction time per iteration: 9.79900360107e-05
Prediction time per iteration: 0.000138998031616
Prediction time per iteration: 0.000104904174805
Prediction time per iteration: 0.000268936157227
Prediction time per iteration: 0.000125885009766
Prediction time per iteration: 0.000108957290649
Prediction time per iteration: 0.000272035598755
Prediction time per iteration: 0.000126838684082
Prediction time per iteration: 0.000121116638184
Prediction time per iteration: 0.000118970870972
Prediction time per iteration: 0.000118017196655
Prediction time per iteration: 0.000112056732178
Prediction time per iteration: 0.000246047973633
Prediction time per iteration: 0.000117063522339
Prediction time per iteration: 0.000112056732178
Prediction time per iteration: 0.000126123428345
Prediction time per iteration: 0.000101089477539
Prediction time per iteration: 9.89437103271e-05
Prediction time per iteration: 9.79900360107e-05
Prediction time per iteration: 0.000273942947388
Prediction time per iteration: 0.000110864639282
Prediction time per iteration: 0.000110864639282
Prediction time per iteration: 0.000109910964966
Prediction time per iteration: 0.000111103057861
Prediction time per iteration: 9.70363616943e-05
Prediction time per iteration: 9.79900360107e-05
Prediction time per iteration: 0.000251054763794
Prediction time per iteration: 0.000108003616333
Prediction time per iteration: 0.000108957290649
Prediction time per iteration: 0.000102996826172
Prediction time per iteration: 0.000101089477539
Prediction time per iteration: 0.000107049942017
Prediction time per iteration: 0.000243902206421
Prediction time per iteration: 0.000110864639282
Prediction time per iteration: 0.0001060962677
Prediction time per iteration: 0.000122785568237
Prediction time per iteration: 0.000102996826172
Prediction time per iteration: 0.000247955322266
Prediction time per iteration: 0.000117063522339
Prediction time per iteration: 0.000104904174805
Prediction time per iteration: 0.000102996826172
Prediction time per iteration: 0.000108957290649
Prediction time per iteration: 8.98838043213e-05
Prediction time per iteration: 0.000300168991089
Prediction time per iteration: 0.000118970870972
Prediction time per iteration: 0.000105857849121
Prediction time per iteration: 0.000113010406494
Prediction time per iteration: 0.000246047973633
Prediction time per iteration: 0.000117063522339
Prediction time per iteration: 0.0001060962677
Prediction time per iteration: 0.000102043151855
Prediction time per iteration: 9.79900360107e-05
Prediction time per iteration: 0.0001060962677
Prediction time per iteration: 9.20295715332e-05
Prediction time per iteration: 0.000257968902588
Prediction time per iteration: 0.000120878219604
Prediction time per iteration: 0.000107049942017
Prediction time per iteration: 0.000113010406494
Prediction time per iteration: 0.000245809555054
Prediction time per iteration: 0.000133037567139
Prediction time per iteration: 0.00010085105896
Prediction time per iteration: 9.79900360107e-05
Prediction time per iteration: 0.0002760887146
Prediction time per iteration: 0.000123023986816
Prediction time per iteration: 0.000112056732178
Prediction time per iteration: 0.000108003616333
Prediction time per iteration: 0.000101089477539
Prediction time per iteration: 0.000243902206421
Prediction time per iteration: 0.000108957290649
Prediction time per iteration: 0.000103950500488
Prediction time per iteration: 0.000104904174805
Prediction time per iteration: 0.00010085105896
Prediction time per iteration: 0.000111818313599
Prediction time per iteration: 9.58442687988e-05
Prediction time per iteration: 0.000243902206421
Prediction time per iteration: 0.000124931335449
Prediction time per iteration: 0.000113964080811
Prediction time per iteration: 0.000112056732178
Prediction time per iteration: 9.67979431152e-05
Prediction time per iteration: 0.000264167785645
Prediction time per iteration: 0.000117063522339
Prediction time per iteration: 0.000108003616333
Prediction time per iteration: 0.0001060962677
Prediction time per iteration: 0.000102043151855
Prediction time per iteration: 0.000231981277466
Prediction time per iteration: 0.000104904174805
Prediction time per iteration: 9.91821289062e-05
Prediction time per iteration: 9.98973846436e-05
Prediction time per iteration: 0.000243902206421
Prediction time per iteration: 0.000105142593384
Prediction time per iteration: 0.000102043151855
Prediction time per iteration: 0.000100135803223
Prediction time per iteration: 0.000104904174805
Prediction time per iteration: 8.89301300049e-05
Prediction time per iteration: 8.79764556885e-05
Prediction time per iteration: 0.000249147415161
Prediction time per iteration: 0.000115156173706
Prediction time per iteration: 0.000105142593384
Prediction time per iteration: 0.000249862670898
Prediction time per iteration: 0.00015115737915
Prediction time per iteration: 0.000108003616333
Prediction time per iteration: 0.00023889541626
Prediction time per iteration: 0.000188112258911
Prediction time per iteration: 0.000174999237061
Prediction time per iteration: 0.000168085098267
Prediction time per iteration: 0.000153064727783
Prediction time per iteration: 0.000149965286255
Prediction time per iteration: 0.000416994094849
Prediction time per iteration: 0.000248908996582
Prediction time per iteration: 0.000123977661133
Prediction time per iteration: 0.000108003616333
Prediction time per iteration: 0.000105142593384
Prediction time per iteration: 0.000101089477539
Prediction time per iteration: 0.000108957290649
Prediction time per iteration: 0.000289916992188
Prediction time per iteration: 0.000111818313599
Prediction time per iteration: 0.000105142593384
Prediction time per iteration: 0.000103950500488
Prediction time per iteration: 0.000103950500488
Prediction time per iteration: 0.000265121459961
Prediction time per iteration: 0.000108957290649
Prediction time per iteration: 0.000115871429443
Prediction time per iteration: 0.000103950500488
Prediction time per iteration: 0.000113964080811
Prediction time per iteration: 9.89437103271e-05
Prediction time per iteration: 0.000102996826172
Prediction time per iteration: 0.000249147415161
Prediction time per iteration: 0.000128030776978
Prediction time per iteration: 0.000106811523438
Prediction time per iteration: 0.000103950500488
Prediction time per iteration: 0.000262975692749
Prediction time per iteration: 0.000118970870972
Prediction time per iteration: 0.000108957290649
Prediction time per iteration: 0.000133037567139
Prediction time per iteration: 9.70363616943e-05
Prediction time per iteration: 0.000286817550659
Prediction time per iteration: 0.000108003616333
Prediction time per iteration: 0.0001060962677
Prediction time per iteration: 0.000101804733276
Prediction time per iteration: 9.89437103271e-05
Prediction time per iteration: 0.000108003616333
